{
	"css": [
		"vendor/fontawesome-free/css/all.min.css",
		"css/sb-admin-2.min.css"
  	],

  	"js": [
  		"vendor/jquery/jquery.min.js",
    	"vendor/bootstrap/js/bootstrap.bundle.min.js",
    	"js/sb-admin-2.min.js",
    	"vendor/jquery-easing/jquery.easing.min.js"
  	]
}
